<?xml version="1.0" encoding="UTF-8"?>
<svg width="32px" height="32px" viewBox="0 0 32 32" version="1.1" xmlns="http://www.w3.org/2000/svg" xmlns:xlink="http://www.w3.org/1999/xlink">
    <!-- Generator: Sketch 52.2 (67145) - http://www.bohemiancoding.com/sketch -->
    <title>Icons / 32x32 / Solid / building-home</title>
    <desc>Created with Sketch.</desc>
    <g id="Icons-/-32x32-/-Solid-/-building-home" stroke="none" stroke-width="1" fill="none" fill-rule="evenodd">
        <g>
            <rect id="bound" x="0" y="0" width="32" height="32"></rect>
            <path d="M23,6.7968254 L23,3 L27,3 L27,9 L26.947454,9 L30,10.7037037 L30,29 L27,29 L27,20 L21,20 L21,29 L13.2788732,29 L2,29 L2,10.7037037 L16.1971831,3 L23,6.7968254 Z M12,26 L5,26 L5,20 L12,20 L12,26 Z M19,15 L13,15 L13,9 L19,9 L19,15 Z" id="building-home" fill="#BEBEBE"></path>
        </g>
    </g>
</svg>