<?xml version="1.0" encoding="UTF-8"?>
<svg width="32px" height="32px" viewBox="0 0 32 32" version="1.1" xmlns="http://www.w3.org/2000/svg" xmlns:xlink="http://www.w3.org/1999/xlink">
    <!-- Generator: Sketch 52.2 (67145) - http://www.bohemiancoding.com/sketch -->
    <title>Icons / 32x32 / Solid / device-laptop</title>
    <desc>Created with Sketch.</desc>
    <g id="Icons-/-32x32-/-Solid-/-device-laptop" stroke="none" stroke-width="1" fill="none" fill-rule="evenodd">
        <g>
            <rect id="bound" x="0" y="0" width="32" height="32"></rect>
            <path d="M32,25.4021739 L28.1142857,22.6630435 L28.1142857,6 L3.88571429,6 L3.88571429,22.6630435 L0,25.4021739 L0.228571429,27 L31.7714286,27 L32,25.4021739 Z M26.2857143,22.6630435 L5.71428571,22.6630435 L5.71428571,7.9173913 L26.2857143,7.82608696 L26.2857143,22.6630435 Z" id="device-laptop" fill="#BEBEBE"></path>
        </g>
    </g>
</svg>