<?xml version="1.0" encoding="UTF-8"?>
<svg width="32px" height="32px" viewBox="0 0 32 32" version="1.1" xmlns="http://www.w3.org/2000/svg" xmlns:xlink="http://www.w3.org/1999/xlink">
    <!-- Generator: Sketch 52.2 (67145) - http://www.bohemiancoding.com/sketch -->
    <title>Icons / 32x32 / Solid / device-tablet</title>
    <desc>Created with Sketch.</desc>
    <g id="Icons-/-32x32-/-Solid-/-device-tablet" stroke="none" stroke-width="1" fill="none" fill-rule="evenodd">
        <g>
            <rect id="bound" x="0" y="0" width="32" height="32"></rect>
            <path d="M25.9,1 L6.1,1 L5,2.09756098 L5,29.902439 L6.1,31 L25.9,31 L27,29.902439 L27,2.09756098 L25.9,1 Z M16,29.5365854 C15.3766667,29.5365854 14.9,29.0609756 14.9,28.4390244 C14.9,27.8170732 15.3766667,27.3414634 16,27.3414634 C16.6233333,27.3414634 17.1,27.8170732 17.1,28.4390244 C17.1,29.0609756 16.6233333,29.5365854 16,29.5365854 Z M24.8,25.5121951 L7.2,25.5487805 L7.2,4.65853659 L24.8,4.65853659 L24.8,25.5121951 Z" id="device-tablet" fill="#BEBEBE"></path>
        </g>
    </g>
</svg>