<?xml version="1.0" encoding="UTF-8"?>
<svg width="32px" height="32px" viewBox="0 0 32 32" version="1.1" xmlns="http://www.w3.org/2000/svg" xmlns:xlink="http://www.w3.org/1999/xlink">
    <!-- Generator: Sketch 52.2 (67145) - http://www.bohemiancoding.com/sketch -->
    <title>Icons / 32x32 / Solid / map-marker</title>
    <desc>Created with Sketch.</desc>
    <g id="Icons-/-32x32-/-Solid-/-map-marker" stroke="none" stroke-width="1" fill="none" fill-rule="evenodd">
        <g>
            <rect id="bound" x="0" y="0" width="32" height="32"></rect>
            <path d="M15.7653277,1 C9.35623679,1 4.1744186,6.18181818 4.1744186,12.5909091 C4.1744186,17.0363636 6.68350951,20.9090909 10.3653277,22.8454545 L15.0835095,31 L16.4471459,31 L21.1653277,22.8454545 C24.8471459,20.9090909 27.3562368,17.0363636 27.3562368,12.5909091 C27.3562368,6.18181818 22.1744186,1 15.7653277,1 Z M15.7653277,16.6818182 C13.5016913,16.6818182 11.6744186,14.8545455 11.6744186,12.5909091 C11.6744186,10.3272727 13.5016913,8.5 15.7653277,8.5 C18.0289641,8.5 19.8562368,10.3272727 19.8562368,12.5909091 C19.8562368,14.8545455 18.0289641,16.6818182 15.7653277,16.6818182 Z" id="Shape" fill="#BEBEBE"></path>
        </g>
    </g>
</svg>