<?xml version="1.0" encoding="UTF-8"?>
<svg width="32px" height="32px" viewBox="0 0 32 32" version="1.1" xmlns="http://www.w3.org/2000/svg" xmlns:xlink="http://www.w3.org/1999/xlink">
    <!-- Generator: Sketch 52.2 (67145) - http://www.bohemiancoding.com/sketch -->
    <title>Icons / 32x32 / Solid / search</title>
    <desc>Created with Sketch.</desc>
    <g id="Icons-/-32x32-/-Solid-/-search" stroke="none" stroke-width="1" fill="none" fill-rule="evenodd">
        <g>
            <rect id="bound" x="0" y="0" width="32" height="32"></rect>
            <path d="M28.8212279,25.5018285 C29.6750927,26.3556933 29.6750927,27.721877 28.8212279,28.5757417 C27.9673631,29.4296065 26.6011794,29.4296065 25.7473146,28.5757417 L19.7702611,22.5986882 L20.5387394,21.8302099 L19.0231294,20.3145999 C17.3367464,21.7875166 15.1807378,22.6627281 12.7899164,22.6627281 C7.53864792,22.6627281 3.24797734,18.3720575 3.24797734,13.120789 C3.24797734,7.86952053 7.53864792,3.57884995 12.7899164,3.57884995 C18.0625315,3.60019657 22.3318555,7.86952053 22.3318555,13.120789 C22.3318555,15.2127577 21.6487636,17.1339535 20.4960461,18.7136034 L22.075696,20.2932533 L22.8441743,19.5247749 L28.8212279,25.5018285 Z M12.7685698,19.5674682 C16.3334553,19.5461216 19.215249,16.6643279 19.215249,13.120789 C19.215249,9.57725012 16.3121087,6.67410982 12.7685698,6.67410982 C9.22503089,6.67410982 6.32189059,9.57725012 6.32189059,13.120789 C6.32189059,16.6643279 9.22503089,19.5674682 12.7685698,19.5674682 Z" id="Shape" fill="#757575"></path>
        </g>
    </g>
</svg>