<?xml version="1.0" encoding="UTF-8"?>
<svg width="29px" height="28px" viewBox="0 0 29 28" version="1.1" xmlns="http://www.w3.org/2000/svg" xmlns:xlink="http://www.w3.org/1999/xlink">
    <!-- Generator: Sketch 52.2 (67145) - http://www.bohemiancoding.com/sketch -->
    <title>Icons / 32x32 / Solid / shop</title>
    <desc>Created with Sketch.</desc>
    <g id="Icons" stroke="none" stroke-width="1" fill="none" fill-rule="evenodd">
        <g id="img/pn-icons-s" transform="translate(-642.000000, -154.000000)" fill="#BEBEBE">
            <g id="row-shop" transform="translate(64.000000, 152.000000)">
                <g id="Icons-/-32x32-/-Solid-/-shop" transform="translate(576.000000, 0.000000)">
                    <path d="M10.2299808,19.4250468 C10.2359332,19.7199694 10.3834705,20.0008227 11.0135517,20.0008227 L30.0135517,20.0008227 L30.0135517,22.0008227 L10.9269224,21.9970633 C9.26037484,21.8521467 8.22998083,20.9417987 8.22998083,19.4250468 C8.22998083,18.2191103 8.87908086,17.3447378 10.0113946,16.871331 L6.09137252,4.02051569 L2,3.99997479 L2.01004095,2 L7.57453528,2.02793675 L8.81532353,6.00082268 L30.0135517,6.00082268 L30.0135517,17.4318908 C17.3645438,18.3298129 10.891857,18.7937031 10.5954914,18.8235613 C10.437273,18.8692919 10.2144184,18.9847704 10.2299808,19.4250468 Z M27.5769662,25.4508258 C28.1210795,26.3739253 28.1214682,27.519575 27.5779816,28.4430436 C27.0344949,29.3665121 26.0327255,29.9223641 24.9615517,29.8948227 C23.3638655,29.8531978 22.0903306,28.5460509 22.0903306,26.9478227 C22.0903306,25.3495944 23.3638655,24.0424476 24.9615517,24.0008227 C26.0307066,23.9725543 27.0328529,24.5277263 27.5769662,25.4508258 Z M15.5764794,25.4517118 C16.1202809,26.3749969 16.1202809,27.5206485 15.5764794,28.4439335 C15.032678,29.3672185 14.0307176,29.92273 12.9595517,29.8948227 C11.3618655,29.8531978 10.0883306,28.5460509 10.0883306,26.9478227 C10.0883306,25.3495944 11.3618655,24.0424476 12.9595517,24.0008227 C14.0307176,23.9729153 15.032678,24.5284268 15.5764794,25.4517118 Z"></path>
                </g>
            </g>
        </g>
    </g>
</svg>