<?xml version="1.0" encoding="UTF-8"?>
<svg width="32px" height="32px" viewBox="0 0 32 32" version="1.1" xmlns="http://www.w3.org/2000/svg" xmlns:xlink="http://www.w3.org/1999/xlink">
    <!-- Generator: Sketch 52.2 (67145) - http://www.bohemiancoding.com/sketch -->
    <title>Icons / 32x32 / Solid / talk-bubbles-1</title>
    <desc>Created with Sketch.</desc>
    <g id="Icons-/-32x32-/-Solid-/-talk-bubbles-1" stroke="none" stroke-width="1" fill="none" fill-rule="evenodd">
        <g id="talk-bubbles-1">
            <rect id="bound" x="0" y="0" width="32" height="32"></rect>
            <path d="M2,5.03111111 L2,23.7288889 L5.11111111,23.7288889 L5.11111111,28.3333333 L8.81333333,23.6977778 L30,23.6977778 L30,7.48888889 C30,6.12 28.88,5 27.5111111,5 L2,5.03111111 Z M12,11 L5,11 L5,9 L12,9 L12,11 Z M27,15 L5,15 L5,13 L27,13 L27,15 Z M27,19 L5,19 L5,17 L27,17 L27,19 Z" id="Shape" fill="#BEBEBE"></path>
        </g>
    </g>
</svg>