<?xml version="1.0" encoding="UTF-8"?>
<svg width="32px" height="32px" viewBox="0 0 32 32" version="1.1" xmlns="http://www.w3.org/2000/svg" xmlns:xlink="http://www.w3.org/1999/xlink">
    <!-- Generator: Sketch 52.2 (67145) - http://www.bohemiancoding.com/sketch -->
    <title>Icons / 32x32 / Solid / talk bubbles-3</title>
    <desc>Created with Sketch.</desc>
    <g id="Icons-/-32x32-/-Solid-/-talk-bubbles-3" stroke="none" stroke-width="1" fill="none" fill-rule="evenodd">
        <g>
            <rect id="bound" x="0" y="0" width="32" height="32"></rect>
            <path d="M10.5142857,10.9714286 C10.5142857,10.4914286 10.6514286,10.0114286 10.88,9.62285714 L2.28571429,9.62285714 L2.28571429,8.25142857 L20.5714286,8.22857143 L20.5714286,1.82857143 C20.5714286,0.822857143 19.7485714,0 18.7428571,0 L0,0.0228571429 L0,12.5942857 L2.28571429,12.5942857 L2.28571429,15.7714286 L5.00571429,12.5942857 L10.5142857,12.5942857 L10.5142857,10.9714286 Z M18.2857143,6.88 L2.28571429,6.88 L2.28571429,5.50857143 L18.2857143,5.50857143 L18.2857143,6.88 Z M2.26285714,4.13714286 L2.26285714,2.76571429 L7.29142857,2.76571429 L7.29142857,4.13714286 L2.26285714,4.13714286 Z" id="Shape" fill="#BEBEBE"></path>
            <path d="M13.2571429,9.21142857 C12.2514286,9.21142857 11.4285714,10.0342857 11.4285714,11.04 L11.4285714,21.9885714 L26.9942857,21.9885714 L29.7142857,25.3714286 L29.7142857,21.9657143 L32,21.9657143 L32,9.21142857 L13.2571429,9.21142857 Z M13.7142857,11.9771429 L18.7428571,11.9771429 L18.7428571,13.3485714 L13.7142857,13.3485714 L13.7142857,11.9771429 Z M29.7142857,18.8342857 L13.7142857,18.8342857 L13.7142857,17.4628571 L29.7142857,17.4628571 L29.7142857,18.8342857 Z M29.7142857,16.0914286 L13.7142857,16.0914286 L13.7142857,14.72 L29.7142857,14.72 L29.7142857,16.0914286 Z" id="Shape" fill="#BEBEBE"></path>
            <path d="M18.2857143,22.8571429 L18.2857143,22.9257143 L2.28571429,22.9257143 L2.28571429,21.5542857 L10.5142857,21.5542857 L10.5142857,16.0914286 L0,16.0914286 L0,28.5942857 L2.28571429,28.5942857 L2.28571429,32 L5.00571429,28.5942857 L20.5714286,28.5942857 L20.5714286,22.8571429 L18.2857143,22.8571429 Z M2.26285714,20.1828571 L2.26285714,18.8114286 L7.29142857,18.8114286 L7.29142857,20.1828571 L2.26285714,20.1828571 Z M18.2857143,25.6685714 L2.28571429,25.6685714 L2.28571429,24.2971429 L18.2857143,24.2971429 L18.2857143,25.6685714 Z" id="Shape" fill="#BEBEBE"></path>
        </g>
    </g>
</svg>