<?xml version="1.0" encoding="UTF-8"?>
<svg width="32px" height="32px" viewBox="0 0 32 32" version="1.1" xmlns="http://www.w3.org/2000/svg" xmlns:xlink="http://www.w3.org/1999/xlink">
    <!-- Generator: Sketch 52.2 (67145) - http://www.bohemiancoding.com/sketch -->
    <title>Icons / 32x32 / Solid / trash-can</title>
    <desc>Created with Sketch.</desc>
    <g id="Icons-/-32x32-/-Solid-/-trash-can" stroke="none" stroke-width="1" fill="none" fill-rule="evenodd">
        <g>
            <rect id="bound" x="0" y="0" width="32" height="32"></rect>
            <path d="M24.3318078,2.52631579 C25.7494737,2.52631579 26.9093822,3.63157895 26.9093822,5.05263158 L26.9093822,6.31578947 L5,6.31578947 L5,5.05263158 C5,3.66315789 6.15990847,2.52631579 7.57757437,2.52631579 L13.6993135,2.52631579 L13.6993135,4.4408921e-15 L14.9881007,4.4408921e-15 L16.9212815,4.4408921e-15 L18.2100686,4.4408921e-15 L18.2100686,2.52631579 L24.3318078,2.52631579 Z M16.9212815,2.52631579 L16.9212815,1.26315789 L14.9881007,1.26315789 L14.9881007,2.52631579 L16.9212815,2.52631579 Z M7.25537757,30 L5.96659039,7.89473684 L25.9427918,7.89473684 L24.6540046,30 L7.25537757,30 Z M21.0776201,10.4210526 L20.1432494,27.4736842 L21.4320366,27.4736842 L22.3664073,10.4210526 L21.0776201,10.4210526 Z M15.3102975,10.4210526 L15.3102975,27.4736842 L16.5990847,27.4736842 L16.5990847,10.4210526 L15.3102975,10.4210526 Z M10.831762,10.4210526 L9.54297483,10.4210526 L10.4773455,27.4736842 L11.7661327,27.4736842 L10.831762,10.4210526 Z" id="Combined-Shape" fill="#BEBEBE"></path>
        </g>
    </g>
</svg>