<?xml version="1.0" encoding="UTF-8"?>
<svg width="32px" height="32px" viewBox="0 0 32 32" version="1.1" xmlns="http://www.w3.org/2000/svg" xmlns:xlink="http://www.w3.org/1999/xlink">
    <!-- Generator: Sketch 52.2 (67145) - http://www.bohemiancoding.com/sketch -->
    <title>Icons / 32x32 / Solid / users</title>
    <desc>Created with Sketch.</desc>
    <g id="Icons-/-32x32-/-Solid-/-users" stroke="none" stroke-width="1" fill="none" fill-rule="evenodd">
        <g>
            <rect id="bound" x="0" y="0" width="32" height="32"></rect>
            <path d="M20,26 L20,17.1120619 C18.7605153,16.5614678 17.3028084,16.1291608 15.6988377,15.8514248 C17.5232196,15.2946262 19.6321004,14.9542171 22,14.9542171 C25.1441809,14.9542171 27.8293426,15.5538879 30,16.4632562 L30,26 L20,26 Z M19,17.6632562 L19,28 L2,28 L2,17.6632562 C4.25533333,16.7538879 7.23458333,16.2 10.5,16.2 C13.7668333,16.2 16.7446667,16.7538879 19,17.6632562 Z M16,9.5 C16,12.53875 13.5375,15 10.5,15 C7.4625,15 5,12.53875 5,9.5 C5,6.46125 7.4625,4 10.5,4 C13.5375,4 16,6.46125 16,9.5 Z M27.5,9 C27.5,11.7625 25.2613636,14 22.5,14 C19.7386364,14 17.5,11.7625 17.5,9 C17.5,6.2375 19.7386364,4 22.5,4 C25.2613636,4 27.5,6.2375 27.5,9 Z" fill="#BEBEBE"></path>
        </g>
    </g>
</svg>