<?xml version="1.0" encoding="UTF-8"?>
<svg width="16px" height="16px" viewBox="0 0 16 16" version="1.1" xmlns="http://www.w3.org/2000/svg" xmlns:xlink="http://www.w3.org/1999/xlink">
    <!-- Generator: Sketch 52.2 (67145) - http://www.bohemiancoding.com/sketch -->
    <title>Icons / 16x16 / Outline / document-question</title>
    <desc>Created with Sketch.</desc>
    <g id="Icons-/-16x16-/-Outline-/-document-question" stroke="none" stroke-width="1" fill="none" fill-rule="evenodd">
        <rect id="bound" x="0" y="0" width="16" height="16"></rect>
        <path d="M4,2 L4,14 L12.0017128,14 L12.0017128,2 L4,2 Z M3,1 L13.0017128,1 L13.0017128,15 L3,15 L3,1 Z M9.70301336,8.2803148 C9.0423527,8.78771875 8.64212488,9.0823237 8.70063167,9.78932381 L7.16728798,9.78932381 C7.00238169,8.858134 7.17997308,8.3512478 7.88749094,7.6670291 C8.38195092,7.20725898 8.80625453,6.80651341 8.80625453,6.27606917 C8.80625453,5.83959822 8.4886093,5.60401781 8.0171896,5.60401781 C7.43911153,5.60401781 7.07331469,5.81604018 6.80252666,6.07543751 L6,6.07543751 L6,4.62519416 C6.55477892,4.27130579 7.26255566,4 8.27632805,4 C10.0447344,4 11,4.77819199 11,6.19348659 C11,7.1601429 10.4806876,7.71414518 9.70301336,8.2803148 Z M7.83487687,12.6807138 C7.22133229,12.6807138 6.72609567,12.2087763 6.72609567,11.6079169 C6.72609567,11.0062808 7.22133229,10.5348611 7.83487687,10.5348611 C8.44738593,10.5348611 8.94288142,11.0062808 8.94288142,11.6079169 C8.94288142,12.2087763 8.44738593,12.6807138 7.83487687,12.6807138 Z" fill="#757575"></path>
    </g>
</svg>