<?xml version="1.0" encoding="UTF-8"?>
<svg width="16px" height="16px" viewBox="0 0 16 16" version="1.1" xmlns="http://www.w3.org/2000/svg" xmlns:xlink="http://www.w3.org/1999/xlink">
    <!-- Generator: Sketch 52.2 (67145) - http://www.bohemiancoding.com/sketch -->
    <title>Icons / 16x16 / Outline / shop</title>
    <desc>Created with Sketch.</desc>
    <g id="Icons-/-16x16-/-Outline-/-shop" stroke="none" stroke-width="1" fill="none" fill-rule="evenodd">
        <rect id="bound" x="0" y="0" width="16" height="16"></rect>
        <path d="M5.29242716,9.39743938 C5.16873169,9.42433167 5.09039307,9.54109192 5.09039307,9.70558167 C5.09039307,9.87007141 5.16873169,10 5.5,10 L15,10 L15,11 L5.45668536,10.9981203 C4.62341159,10.925662 4.10821459,10.470488 4.10821459,9.71211204 C4.10821459,9.10914382 4.4327646,8.67195755 4.99892148,8.43525417 L3.03891043,2.0098465 L0.993224172,1.99957606 L0.998244646,0.999588662 L3.78049181,1.01355704 L4.38034058,3 L15,3 L15,8.71553406 L5.29242716,9.39743938 Z M6.01990403,8.3549118 L4.69147855,4 L14,4 L14,7.78446594 L6.01990403,8.3549118 Z M12.473,12 C13.0085775,11.9858658 13.5096506,12.2634518 13.7817073,12.7250016 C14.0537639,13.1865513 14.0539583,13.7593762 13.782215,14.2211104 C13.5104716,14.6828447 13.0095869,14.9607707 12.474,14.947 C11.6751569,14.9261875 11.0383895,14.2726141 11.0383895,13.4735 C11.0383895,12.6743859 11.6751569,12.0208125 12.474,12 L12.473,12 Z M6.473,12 C7.00858297,11.9860463 7.50956316,12.2638021 7.7814639,12.7254446 C8.05336464,13.1870871 8.05336464,13.7599129 7.7814639,14.2215554 C7.50956316,14.6831979 7.00858297,14.9609537 6.473,14.947 C5.67415693,14.9261875 5.03738945,14.2726141 5.03738945,13.4735 C5.03738945,12.6743859 5.67415693,12.0208125 6.473,12 Z" fill="#757575"></path>
    </g>
</svg>