<?xml version="1.0" encoding="UTF-8"?>
<svg width="32px" height="32px" viewBox="0 0 32 32" version="1.1" xmlns="http://www.w3.org/2000/svg" xmlns:xlink="http://www.w3.org/1999/xlink">
    <!-- Generator: Sketch 52.2 (67145) - http://www.bohemiancoding.com/sketch -->
    <title>Icons / 32x32 / Outline / calendar</title>
    <desc>Created with Sketch.</desc>
    <defs>
        <path d="M23,7 L23,10 L25,10 L25,7 L28,7 L28,28 L4,28 L4,7 L8,7 L8,4 L10,4 L10,7 L10,10 L12,10 L12,7 L21,7 L21,4 L23,4 L23,7 Z M23,10 L21,10 L10,10 L8,10 L6,10 L6,26 L26,26 L26,10 L23,10 Z M8,12 L12,12 L12,16 L8,16 L8,12 Z M14,12 L18,12 L18,16 L14,16 L14,12 Z M20,12 L24,12 L24,16 L20,16 L20,12 Z M8,18 L12,18 L12,22 L8,22 L8,18 Z M14,18 L18,18 L18,22 L14,22 L14,18 Z M20,18 L24,18 L24,22 L20,22 L20,18 Z" id="path-1"></path>
    </defs>
    <g id="Icons-/-32x32-/-Outline-/-calendar" stroke="none" stroke-width="1" fill="none" fill-rule="evenodd">
        <rect id="bound" x="0" y="0" width="32" height="32"></rect>
        <mask id="mask-2" fill="white">
            <use xlink:href="#path-1"></use>
        </mask>
        <use fill="#757575" xlink:href="#path-1"></use>
    </g>
</svg>