<?xml version="1.0" encoding="UTF-8"?>
<svg width="16px" height="16px" viewBox="0 0 16 16" version="1.1" xmlns="http://www.w3.org/2000/svg" xmlns:xlink="http://www.w3.org/1999/xlink">
    <!-- Generator: Sketch 52.2 (67145) - http://www.bohemiancoding.com/sketch -->
    <title>Icons / 16x16 / Solid / bell-alarm</title>
    <desc>Created with Sketch.</desc>
    <g id="Icons-/-16x16-/-Solid-/-bell-alarm" stroke="none" stroke-width="1" fill="none" fill-rule="evenodd">
        <g id="bell-alarm">
            <rect id="bound" x="0" y="0" width="16" height="16"></rect>
            <path d="M2.71698113,6.67924528 C2.71698113,5.59245283 3.15471698,4.59622642 3.87924528,3.88679245 L4.30188679,4.30943396 C3.69811321,4.91320755 3.32075472,5.75849057 3.32075472,6.67924528 L2.71698113,6.67924528 Z M1.35849057,6.67924528 C1.35849057,5.21509434 1.97735849,3.90188679 2.97358491,2.98113208 L3.39622642,3.40377358 C2.52075472,4.21886792 1.96226415,5.38113208 1.96226415,6.67924528 L1.35849057,6.67924528 Z M5.37347944e-14,6.67924528 C5.37347944e-14,4.85283019 0.8,3.20754717 2.06792453,2.0754717 L2.49056604,2.49811321 C1.32830189,3.5245283 0.603773585,5.01886792 0.603773585,6.67924528 L5.37347944e-14,6.67924528 Z M13.2830189,6.67924528 L12.6792453,6.67924528 C12.6792453,5.75849057 12.3018868,4.91320755 11.6981132,4.30943396 L12.1207547,3.88679245 C12.845283,4.59622642 13.2830189,5.59245283 13.2830189,6.67924528 Z M14.6415094,6.67924528 L14.0377358,6.67924528 C14.0377358,5.38113208 13.4792453,4.21886792 12.6037736,3.40377358 L13.0264151,2.98113208 C14.0226415,3.90188679 14.6415094,5.21509434 14.6415094,6.67924528 Z M16,6.67924528 L15.3962264,6.67924528 C15.3962264,5.01886792 14.6716981,3.5245283 13.509434,2.49811321 L13.9320755,2.0754717 C15.2,3.20754717 16,4.85283019 16,6.67924528 Z M6.18867925,13.0188679 L9.50943396,13.0188679 C9.50943396,13.9396226 8.76981132,14.6792453 7.8490566,14.6792453 C6.92830189,14.6792453 6.18867925,13.9396226 6.18867925,13.0188679 Z M11.4716981,10.1207547 L12.5283019,11.8113208 L12.5283019,12.4150943 L3.47169811,12.4150943 L3.47169811,11.8113208 L4.52830189,10.1207547 L4.52830189,7.43396226 C4.52830189,5.51698113 6.08301887,3.96226415 8,3.96226415 C9.91698113,3.96226415 11.4716981,5.51698113 11.4716981,7.43396226 L11.4716981,10.1207547 Z" id="Combined-Shape" fill="#BEBEBE"></path>
        </g>
    </g>
</svg>