<?xml version="1.0" encoding="UTF-8"?>
<svg width="16px" height="16px" viewBox="0 0 16 16" version="1.1" xmlns="http://www.w3.org/2000/svg" xmlns:xlink="http://www.w3.org/1999/xlink">
    <!-- Generator: Sketch 52.2 (67145) - http://www.bohemiancoding.com/sketch -->
    <title>Icons / 16x16 / Solid / calendar</title>
    <desc>Created with Sketch.</desc>
    <g id="Icons-/-16x16-/-Solid-/-calendar" stroke="none" stroke-width="1" fill="none" fill-rule="evenodd">
        <g>
            <rect id="bound" x="0" y="0" width="16" height="16"></rect>
            <path d="M11.5,3.5 L14,3.5 L14,14 L2,14 L2,3.5 L4,3.5 L4,2 L5,2 L5,3.5 L10.5,3.5 L10.5,2 L11.5,2 L11.5,3.5 Z M4,6 L6,6 L6,8 L4,8 L4,6 Z M7,6 L9,6 L9,8 L7,8 L7,6 Z M10,6 L12,6 L12,8 L10,8 L10,6 Z M4,9 L6,9 L6,11 L4,11 L4,9 Z M7,9 L9,9 L9,11 L7,11 L7,9 Z M10,9 L12,9 L12,11 L10,11 L10,9 Z" fill="#BEBEBE"></path>
        </g>
    </g>
</svg>