<?xml version="1.0" encoding="UTF-8"?>
<svg width="16px" height="16px" viewBox="0 0 16 16" version="1.1" xmlns="http://www.w3.org/2000/svg" xmlns:xlink="http://www.w3.org/1999/xlink">
    <!-- Generator: Sketch 52.2 (67145) - http://www.bohemiancoding.com/sketch -->
    <title>Icons / 16x16 / Solid / device-mobile</title>
    <desc>Created with Sketch.</desc>
    <g id="Icons-/-16x16-/-Solid-/-device-mobile" stroke="none" stroke-width="1" fill="none" fill-rule="evenodd">
        <g>
            <rect id="bound" x="0" y="0" width="16" height="16"></rect>
            <path d="M11.5555556,1 L4.44444444,1 L4,1.46666667 L4,14.5333333 L4.44444444,15 L11.5555556,15 L12,14.5333333 L12,1.46666667 L11.5555556,1 Z M6.66666667,1.7 L9.33333333,1.7 L9.33333333,2.16666667 L6.66666667,2.16666667 L6.66666667,1.7 Z M8,14.3 C7.68888889,14.3 7.44444444,14.02 7.44444444,13.7166667 C7.44444444,13.39 7.71111111,13.1333333 8,13.1333333 C8.31111111,13.1333333 8.55555556,13.39 8.55555556,13.7166667 C8.55555556,14.0433333 8.31111111,14.3 8,14.3 Z M11.1111111,12.4333333 L4.88888889,12.4333333 L4.88888889,2.86666667 L11.1111111,2.86666667 L11.1111111,12.4333333 Z" id="device-mobile" fill="#BEBEBE"></path>
        </g>
    </g>
</svg>