<?xml version="1.0" encoding="UTF-8"?>
<svg width="16px" height="16px" viewBox="0 0 16 16" version="1.1" xmlns="http://www.w3.org/2000/svg" xmlns:xlink="http://www.w3.org/1999/xlink">
    <!-- Generator: Sketch 52.2 (67145) - http://www.bohemiancoding.com/sketch -->
    <title>Icons / 16x16 / Solid / document-question</title>
    <desc>Created with Sketch.</desc>
    <g id="Icons-/-16x16-/-Solid-/-document-question" stroke="none" stroke-width="1" fill="none" fill-rule="evenodd">
        <g>
            <rect id="bound" x="0" y="0" width="16" height="16"></rect>
            <path d="M2,0 L14,0 L14,16 L2,16 L2,0 Z M10.0998973,7.89497357 C9.19001629,8.593785 8.63881095,8.99952347 8.71938818,9.9732245 L6.60762283,9.9732245 C6.38050911,8.69076291 6.62509311,7.99266455 7.59950721,7.05033873 C8.28049182,6.41713001 8.86485505,5.86521159 8.86485505,5.13466842 C8.86485505,4.53354797 8.42738484,4.20909981 7.77813197,4.20909981 C6.98198609,4.20909981 6.4782001,4.50110316 6.10526298,4.85835267 L5,4.85835267 L5,2.86103551 C5.7640576,2.37365019 6.73882824,2 8.13502495,2 C10.5705254,2 11.8861449,3.07174855 11.8861449,5.02093329 C11.8861449,6.35224037 11.1709328,7.11522836 10.0998973,7.89497357 Z M7.52704559,13.9553306 C6.68205422,13.9553306 6,13.3053646 6,12.4778436 C6,11.6492529 6.68205422,11 7.52704559,11 C8.37061082,11 9.05302157,11.6492529 9.05302157,12.4778436 C9.05302157,13.3053646 8.37061082,13.9553306 7.52704559,13.9553306 Z" fill="#BEBEBE"></path>
        </g>
    </g>
</svg>