<?xml version="1.0" encoding="UTF-8"?>
<svg width="16px" height="16px" viewBox="0 0 16 16" version="1.1" xmlns="http://www.w3.org/2000/svg" xmlns:xlink="http://www.w3.org/1999/xlink">
    <!-- Generator: Sketch 52.2 (67145) - http://www.bohemiancoding.com/sketch -->
    <title>Icons / 16x16 / Solid / talk-bubbles-1</title>
    <desc>Created with Sketch.</desc>
    <g id="Icons-/-16x16-/-Solid-/-talk-bubbles-1" stroke="none" stroke-width="1" fill="none" fill-rule="evenodd">
        <g id="talk-bubbles-1">
            <rect id="Bound" x="0" y="0" width="16" height="16"></rect>
            <path d="M1,3.01555556 L1,12.3644444 L2.55555556,12.3644444 L2.55555556,14.6666667 L4.40666667,12.3488889 L15,12.3488889 L15,4.24444444 C15,3.56 14.44,3 13.7555556,3 L1,3.01555556 Z M6,6 L2.5,6 L2.5,5 L6,5 L6,6 Z M13.5,8 L2.5,8 L2.5,7 L13.5,7 L13.5,8 Z M13.5,10 L2.5,10 L2.5,9 L13.5,9 L13.5,10 Z" id="Shape" fill="#BEBEBE"></path>
        </g>
    </g>
</svg>