<?xml version="1.0" encoding="UTF-8"?>
<svg width="14px" height="12px" viewBox="0 0 14 12" version="1.1" xmlns="http://www.w3.org/2000/svg" xmlns:xlink="http://www.w3.org/1999/xlink">
    <!-- Generator: Sketch 52.2 (67145) - http://www.bohemiancoding.com/sketch -->
    <title>Icons / 16x16 / Solid / users</title>
    <desc>Created with Sketch.</desc>
    <g id="Icons" stroke="none" stroke-width="1" fill="none" fill-rule="evenodd">
        <g id="img/pn-icons-u" transform="translate(-321.000000, -90.000000)" fill="#BEBEBE">
            <g id="row-users" transform="translate(64.000000, 88.000000)">
                <g id="Icons-/-16x16-/-Solid-/-users" transform="translate(256.000000, 0.000000)">
                    <path d="M10,13 L10,8.55603094 C9.38025764,8.28073388 8.65140422,8.06458042 7.84941887,7.9257124 C8.76160981,7.64731312 9.81605021,7.47710857 11,7.47710857 C12.5720904,7.47710857 13.9146713,7.77694396 15,8.23162808 L15,13 L10,13 Z M9.5,8.83162808 L9.5,14 L1,14 L1,8.83162808 C2.12766667,8.37694396 3.61729167,8.1 5.25,8.1 C6.88341667,8.1 8.37233333,8.37694396 9.5,8.83162808 Z M8,4.75 C8,6.269375 6.76875,7.5 5.25,7.5 C3.73125,7.5 2.5,6.269375 2.5,4.75 C2.5,3.230625 3.73125,2 5.25,2 C6.76875,2 8,3.230625 8,4.75 Z M13.75,4.5 C13.75,5.88125 12.6306818,7 11.25,7 C9.86931818,7 8.75,5.88125 8.75,4.5 C8.75,3.11875 9.86931818,2 11.25,2 C12.6306818,2 13.75,3.11875 13.75,4.5 Z"></path>
                </g>
            </g>
        </g>
    </g>
</svg>